^C:\USERS\SERGIU\SOURCE\REPOS\ADT SORTEDBAG USING BST WITH DYNAMIC ALLOCATION\ADT SORTEDBAG USING BST WITH DYNAMIC ALLOCATION\APP.CPP|C:\USERS\SERGIU\SOURCE\REPOS\ADT SORTEDBAG USING BST WITH DYNAMIC ALLOCATION\ADT SORTEDBAG USING BST WITH DYNAMIC ALLOCATION\BSTNODE.CPP|C:\USERS\SERGIU\SOURCE\REPOS\ADT SORTEDBAG USING BST WITH DYNAMIC ALLOCATION\ADT SORTEDBAG USING BST WITH DYNAMIC ALLOCATION\EXTENDEDTEST.CPP|C:\USERS\SERGIU\SOURCE\REPOS\ADT SORTEDBAG USING BST WITH DYNAMIC ALLOCATION\ADT SORTEDBAG USING BST WITH DYNAMIC ALLOCATION\SHORTTEST.CPP|C:\USERS\SERGIU\SOURCE\REPOS\ADT SORTEDBAG USING BST WITH DYNAMIC ALLOCATION\ADT SORTEDBAG USING BST WITH DYNAMIC ALLOCATION\SORTEDBAG.CPP|C:\USERS\SERGIU\SOURCE\REPOS\ADT SORTEDBAG USING BST WITH DYNAMIC ALLOCATION\ADT SORTEDBAG USING BST WITH DYNAMIC ALLOCATION\SORTEDBAGITERATOR.CPP
C:\USERS\SERGIU\SOURCE\REPOS\ADT SORTEDBAG USING BST WITH DYNAMIC ALLOCATION\ADT SORTEDBAG USING BST WITH DYNAMIC ALLOCATION\DEBUG\VC142.PDB
C:\USERS\SERGIU\SOURCE\REPOS\ADT SORTEDBAG USING BST WITH DYNAMIC ALLOCATION\ADT SORTEDBAG USING BST WITH DYNAMIC ALLOCATION\DEBUG\VC142.IDB
C:\USERS\SERGIU\SOURCE\REPOS\ADT SORTEDBAG USING BST WITH DYNAMIC ALLOCATION\ADT SORTEDBAG USING BST WITH DYNAMIC ALLOCATION\DEBUG\SORTEDBAGITERATOR.OBJ
C:\USERS\SERGIU\SOURCE\REPOS\ADT SORTEDBAG USING BST WITH DYNAMIC ALLOCATION\ADT SORTEDBAG USING BST WITH DYNAMIC ALLOCATION\DEBUG\SORTEDBAG.OBJ
C:\USERS\SERGIU\SOURCE\REPOS\ADT SORTEDBAG USING BST WITH DYNAMIC ALLOCATION\ADT SORTEDBAG USING BST WITH DYNAMIC ALLOCATION\DEBUG\SHORTTEST.OBJ
C:\USERS\SERGIU\SOURCE\REPOS\ADT SORTEDBAG USING BST WITH DYNAMIC ALLOCATION\ADT SORTEDBAG USING BST WITH DYNAMIC ALLOCATION\DEBUG\EXTENDEDTEST.OBJ
C:\USERS\SERGIU\SOURCE\REPOS\ADT SORTEDBAG USING BST WITH DYNAMIC ALLOCATION\ADT SORTEDBAG USING BST WITH DYNAMIC ALLOCATION\DEBUG\BSTNODE.OBJ
C:\USERS\SERGIU\SOURCE\REPOS\ADT SORTEDBAG USING BST WITH DYNAMIC ALLOCATION\ADT SORTEDBAG USING BST WITH DYNAMIC ALLOCATION\DEBUG\APP.OBJ
^C:\USERS\SERGIU\SOURCE\REPOS\ADT SORTEDBAG USING BST WITH DYNAMIC ALLOCATION\ADT SORTEDBAG USING BST WITH DYNAMIC ALLOCATION\APP.CPP
C:\USERS\SERGIU\SOURCE\REPOS\ADT SORTEDBAG USING BST WITH DYNAMIC ALLOCATION\ADT SORTEDBAG USING BST WITH DYNAMIC ALLOCATION\DEBUG\VC142.PDB
^C:\USERS\SERGIU\SOURCE\REPOS\ADT SORTEDBAG USING BST WITH DYNAMIC ALLOCATION\ADT SORTEDBAG USING BST WITH DYNAMIC ALLOCATION\BSTNODE.CPP
C:\USERS\SERGIU\SOURCE\REPOS\ADT SORTEDBAG USING BST WITH DYNAMIC ALLOCATION\ADT SORTEDBAG USING BST WITH DYNAMIC ALLOCATION\DEBUG\VC142.PDB
^C:\USERS\SERGIU\SOURCE\REPOS\ADT SORTEDBAG USING BST WITH DYNAMIC ALLOCATION\ADT SORTEDBAG USING BST WITH DYNAMIC ALLOCATION\EXTENDEDTEST.CPP
C:\USERS\SERGIU\SOURCE\REPOS\ADT SORTEDBAG USING BST WITH DYNAMIC ALLOCATION\ADT SORTEDBAG USING BST WITH DYNAMIC ALLOCATION\DEBUG\VC142.PDB
^C:\USERS\SERGIU\SOURCE\REPOS\ADT SORTEDBAG USING BST WITH DYNAMIC ALLOCATION\ADT SORTEDBAG USING BST WITH DYNAMIC ALLOCATION\SHORTTEST.CPP
C:\USERS\SERGIU\SOURCE\REPOS\ADT SORTEDBAG USING BST WITH DYNAMIC ALLOCATION\ADT SORTEDBAG USING BST WITH DYNAMIC ALLOCATION\DEBUG\VC142.PDB
^C:\USERS\SERGIU\SOURCE\REPOS\ADT SORTEDBAG USING BST WITH DYNAMIC ALLOCATION\ADT SORTEDBAG USING BST WITH DYNAMIC ALLOCATION\SORTEDBAG.CPP
C:\USERS\SERGIU\SOURCE\REPOS\ADT SORTEDBAG USING BST WITH DYNAMIC ALLOCATION\ADT SORTEDBAG USING BST WITH DYNAMIC ALLOCATION\DEBUG\VC142.PDB
^C:\USERS\SERGIU\SOURCE\REPOS\ADT SORTEDBAG USING BST WITH DYNAMIC ALLOCATION\ADT SORTEDBAG USING BST WITH DYNAMIC ALLOCATION\SORTEDBAGITERATOR.CPP
C:\USERS\SERGIU\SOURCE\REPOS\ADT SORTEDBAG USING BST WITH DYNAMIC ALLOCATION\ADT SORTEDBAG USING BST WITH DYNAMIC ALLOCATION\DEBUG\VC142.PDB
